[gd_scene load_steps=7 format=2]

[ext_resource path="res://Fonts/Arimo-Bold.ttf" type="DynamicFontData" id=1]
[ext_resource path="res://Assets/heart.png" type="Texture" id=2]
[ext_resource path="res://Scenes/UI/UI.gd" type="Script" id=3]
[ext_resource path="res://Assets/pause.png" type="Texture" id=4]
[ext_resource path="res://Assets/force_down.png" type="Texture" id=5]

[sub_resource type="DynamicFont" id=1]
size = 48
font_data = ExtResource( 1 )

[node name="UI" type="Control"]
anchor_right = 1.0
anchor_bottom = 0.137
margin_bottom = 0.400002
script = ExtResource( 3 )
__meta__ = {
"_edit_use_anchors_": false
}

[node name="Background" type="ColorRect" parent="."]
anchor_right = 1.0
anchor_bottom = 1.0
color = Color( 0.164706, 0.164706, 0.164706, 1 )
__meta__ = {
"_edit_use_anchors_": false
}

[node name="Tries" type="Label" parent="."]
anchor_left = 0.5
anchor_top = 0.5
anchor_right = 0.5
anchor_bottom = 0.5
margin_left = -27.0
margin_top = -27.5
margin_right = 27.0
margin_bottom = 27.5
custom_fonts/font = SubResource( 1 )
text = "99"
align = 1
valign = 1
__meta__ = {
"_edit_use_anchors_": false
}

[node name="HeartTexture" type="TextureRect" parent="."]
anchor_left = 0.5
anchor_top = 0.5
anchor_right = 0.5
anchor_bottom = 0.5
margin_left = 37.6111
margin_top = -18.125
margin_right = 244.611
margin_bottom = 176.875
rect_scale = Vector2( 0.2, 0.2 )
texture = ExtResource( 2 )
stretch_mode = 1
__meta__ = {
"_edit_use_anchors_": false
}

[node name="PauseButton" type="TextureButton" parent="."]
margin_left = 19.0
margin_top = 25.0
margin_right = 153.0
margin_bottom = 159.0
rect_scale = Vector2( 0.4, 0.4 )
texture_normal = ExtResource( 4 )

[node name="ForceDownButton" type="TextureButton" parent="."]
visible = false
margin_left = 88.0
margin_top = 24.0
margin_right = 222.0
margin_bottom = 158.0
rect_scale = Vector2( 0.4, 0.4 )
texture_normal = ExtResource( 5 )
__meta__ = {
"_edit_use_anchors_": false
}
